logloss,acc,learning rate,decay rate,batch size
0.692895948887,0.507790962484,1.0,1.0,100
0.693009614944,0.505873187103,0.01,1.0,400
0.693143069744,0.503416037397,1e-06,1.0,400
0.693174004555,0.497542850294,0.01,1.0,100
0.693418264389,0.498381877023,0.1,1.0,100
0.693552970886,0.496943545487,0.0001,1.0,100
0.693572342396,0.501558192497,0.0001,1.0,700
0.693576693535,0.4981421551,1e-05,1.0,700
0.693764686584,0.5018578449,0.001,1.0,700
0.693991959095,0.492149107036,1e-06,1.0,700
0.694315612316,0.498981181829,0.001,1.0,100
0.694442272186,0.495924727316,1e-06,1.0,100
0.694795548916,0.501797914419,0.1,1.0,400
0.695564985275,0.502337288745,1e-05,1.0,400
0.695589363575,0.498681529426,0.001,1.0,400
0.69912302494,0.498202085581,0.01,1.0,700
0.700367927551,0.498202085581,0.0001,1.0,400
0.705925583839,0.498202085581,0.1,1.0,700
0.708891093731,0.498202085581,1e-05,1.0,100
8.02838897705,0.501797914419,1.0,1.0,400
8.02911472321,0.501797914419,1.0,1.0,700
